module gitlab.com/ukino/hugoproxy/proxy

go 1.20

require (
	github.com/go-chi/chi/v5 v5.0.10
	github.com/stretchr/testify v1.8.4
)

require (
	github.com/Masterminds/squirrel v1.5.4 // indirect
	github.com/asaskevich/govalidator v0.0.0-20230301143203-a9d515a09cc2 // indirect
	github.com/betacraft/easytags v1.0.2 // indirect
	github.com/davecgh/go-spew v1.1.2-0.20180830191138-d8f796af33cc // indirect
	github.com/decred/dcrd/dcrec/secp256k1/v4 v4.2.0 // indirect
	github.com/go-chi/jwtauth/v5 v5.1.1 // indirect
	github.com/go-openapi/analysis v0.21.4 // indirect
	github.com/go-openapi/errors v0.20.3 // indirect
	github.com/go-openapi/jsonpointer v0.19.5 // indirect
	github.com/go-openapi/jsonreference v0.20.0 // indirect
	github.com/go-openapi/loads v0.21.2 // indirect
	github.com/go-openapi/runtime v0.26.0 // indirect
	github.com/go-openapi/spec v0.20.8 // indirect
	github.com/go-openapi/strfmt v0.21.7 // indirect
	github.com/go-openapi/swag v0.22.3 // indirect
	github.com/go-openapi/validate v0.22.1 // indirect
	github.com/goccy/go-json v0.10.2 // indirect
	github.com/golang-migrate/migrate/v4 v4.16.2 // indirect
	github.com/hashicorp/errwrap v1.1.0 // indirect
	github.com/hashicorp/go-multierror v1.1.1 // indirect
	github.com/jmoiron/sqlx v1.3.5 // indirect
	github.com/joho/godotenv v1.5.1 // indirect
	github.com/josharian/intern v1.0.0 // indirect
	github.com/json-iterator/go v1.1.12 // indirect
	github.com/kr/pretty v0.3.1 // indirect
	github.com/lann/builder v0.0.0-20180802200727-47ae307949d0 // indirect
	github.com/lann/ps v0.0.0-20150810152359-62de8c46ede0 // indirect
	github.com/lestrrat-go/blackmagic v1.0.1 // indirect
	github.com/lestrrat-go/httpcc v1.0.1 // indirect
	github.com/lestrrat-go/httprc v1.0.4 // indirect
	github.com/lestrrat-go/iter v1.0.2 // indirect
	github.com/lestrrat-go/jwx/v2 v2.0.11 // indirect
	github.com/lestrrat-go/option v1.0.1 // indirect
	github.com/lib/pq v1.10.9 // indirect
	github.com/mailru/easyjson v0.7.7 // indirect
	github.com/mitchellh/mapstructure v1.5.0 // indirect
	github.com/modern-go/concurrent v0.0.0-20180228061459-e0a39a4cb421 // indirect
	github.com/modern-go/reflect2 v1.0.2 // indirect
	github.com/oklog/ulid v1.3.1 // indirect
	github.com/pmezard/go-difflib v1.0.1-0.20181226105442-5d4384ee4fb2 // indirect
	github.com/ptflp/godecoder v0.0.1 // indirect
	github.com/rogpeppe/go-internal v1.11.0 // indirect
	github.com/segmentio/asm v1.2.0 // indirect
	github.com/valyala/bytebufferpool v1.0.0 // indirect
	github.com/valyala/quicktemplate v1.7.0 // indirect
	go.mongodb.org/mongo-driver v1.11.3 // indirect
	go.uber.org/atomic v1.11.0 // indirect
	go.uber.org/multierr v1.10.0 // indirect
	go.uber.org/zap v1.26.0 // indirect
	golang.org/x/crypto v0.15.0 // indirect
	golang.org/x/sync v0.5.0 // indirect
	golang.org/x/sys v0.14.0 // indirect
	gopkg.in/check.v1 v1.0.0-20201130134442-10cb98267c6c // indirect
	gopkg.in/yaml.v3 v3.0.1 // indirect
)
